{
    "editor": [
        {
            "icon": "",
            "key": "settings",
            "header": "Settings",
            "disabled": false,
            "fields": [
                {
                    "key": "image",
                    "header": "Image",
                    "type": "image"
                },
                {
                    "key": "headline",
                    "header": "Header",
                    "type": "text"
                },
                {
                    "key": "description",
                    "header": "Description",
                    "type": "text"
                },
                {
                    "key": "price",
                    "header": "Price",
                    "type": "text"
                }
            ]
        }
    ],
    "config": {
        "settings": {
            "image": "https://frontend.apps.playcent.com/cf6b77a6d2994b548d541af65d06f2a1/assets/1200px-Mona_Lisa,_by_Leonardo_da_Vinci,_from_C2RMF_retouched.jpg",
            "headline": "Monalisa NFT",
            "description": "GOKU AND BEERUS",
            "price": "10"
        }
    }
}